{
    "general": {
        "language": "English",
        "native_metadata": false,
        "renderer": "AUTO",
        "dimness": 0.5,
        "show_keys": false,
        "skin": "skin",
        "detail": {
            "background_video": false,
            "combo_bursts": false,
            "hit_lighting": false
        }
    },
    "graphics": {
        "resolution": {
            "x": 1920,
            "y": 1080
        },
        "fullscreen": false,
        "showfps": false
    },
    "menu": {
        "snow": false,
        "parallax": true,
        "flashes": true
    },
    "sound": {
        "volume": {
            "master": 10,
            "music": 100,
            "effects": 100
        },
        "ignore_beatmaps_sounds": false,
        "offset": 0
    }
}